"Stu_ID","grade","class","gender","Math","English","Science","Marketing","Writing"
10101,1,"A","M",55,84,50,40,59
10102,1,"A","M",29,94,41,87,57
10103,1,"A","F",28,80,68,41,100
10104,1,"A","F",45,74,48,88,75
10105,1,"A","F",NA,69,57,91,66
10106,1,"A","M",86,51,68,59,92
10107,1,"A","M",NA,52,98,81,79
10108,1,"A","F",80,67,98,85,90
10109,1,"A","M",30,32,74,86,52
10110,1,"A","M",94,39,90,67,28
10111,1,"A","M",27,61,82,29,94
10112,1,"A","M",88,39,32,70,87
10113,1,"A","M",27,100,75,80,28
10114,1,"A","F",35,70,31,51,34
10115,1,"A","F",NA,61,40,85,59
10116,1,"A","F",58,66,94,72,94
10117,1,"A","M",25,83,62,81,50
10118,1,"A","F",54,82,67,42,91
10119,1,"A","M",98,35,84,55,42
10120,1,"A","F",50,91,71,71,95
10121,1,"A","F",60,99,59,77,66
10122,1,"A","M",91,84,47,43,56
10123,1,"A","M",51,41,93,37,27
10124,1,"A","F",76,63,82,47,28
10125,1,"A","F",62,96,86,55,59
10126,1,"A","M",29,29,46,71,72
10127,1,"A","F",56,73,41,63,86
10128,1,"A","F",92,59,61,96,83
10129,1,"A","F",44,93,38,38,69
10130,1,"A","F",48,49,70,67,87
10131,1,"A","M",69,59,26,31,43
10132,1,"A","F",93,54,41,96,98
10133,1,"A","M",84,46,39,32,63
10134,1,"A","M",49,75,67,86,80
10135,1,"A","F",36,90,49,52,55
10136,1,"A","F",35,95,94,74,68
10137,1,"A","F",77,38,98,69,89
10138,1,"A","M",93,91,90,43,36
10139,1,"A","F",88,58,62,62,99
10140,1,"A","F",NA,83,33,61,62
10201,1,"B","M",93,61,93,77,76
10202,1,"B","F",70,86,73,83,79
10203,1,"B","F",44,96,84,61,26
10204,1,"B","M",44,70,95,62,33
10205,1,"B","F",85,46,63,33,30
10206,1,"B","M",46,60,54,79,85
10207,1,"B","F",85,97,50,32,38
10208,1,"B","M",58,39,39,35,40
10209,1,"B","M",64,63,55,75,47
10210,1,"B","M",47,77,56,78,42
10211,1,"B","F",92,26,41,52,26
10212,1,"B","M",44,69,48,72,51
10213,1,"B","M",97,50,26,82,49
10214,1,"B","M",49,93,31,64,60
10215,1,"B","M",NA,77,100,41,45
10216,1,"B","F",80,40,86,43,68
10217,1,"B","F",80,60,56,90,71
10218,1,"B","M",80,35,38,68,66
10219,1,"B","F",78,74,80,61,36
10220,1,"B","M",NA,76,90,50,61
10221,1,"B","F",89,73,85,68,85
10222,1,"B","F",69,40,56,71,61
10223,1,"B","F",59,36,89,74,44
10224,1,"B","F",75,79,27,27,93
10225,1,"B","F",85,31,89,76,58
10226,1,"B","F",50,38,89,28,55
10227,1,"B","M",29,94,62,77,62
10228,1,"B","F",97,40,82,95,82
10229,1,"B","M",81,57,79,38,98
10230,1,"B","F",98,35,73,34,77
10231,1,"B","F",85,28,59,39,66
10232,1,"B","F",84,46,78,55,57
10233,1,"B","M",50,99,99,83,83
10234,1,"B","F",41,27,63,83,60
10235,1,"B","F",28,88,28,83,31
10236,1,"B","F",51,36,47,43,58
10237,1,"B","M",82,97,63,87,92
10238,1,"B","F",87,63,31,50,92
10239,1,"B","F",27,26,47,55,34
10240,1,"B","M",33,34,30,100,28
10301,1,"C","M",48,36,100,69,25
10302,1,"C","F",65,47,86,48,99
10303,1,"C","F",65,64,28,75,62
10304,1,"C","M",62,40,77,58,45
10305,1,"C","F",79,84,70,47,89
10306,1,"C","M",35,97,67,77,81
10307,1,"C","F",37,79,88,68,29
10308,1,"C","M",98,74,47,48,87
10309,1,"C","M",30,60,46,94,81
10310,1,"C","F",27,29,45,61,91
10311,1,"C","M",79,42,55,69,68
10312,1,"C","F",81,56,81,86,60
10313,1,"C","F",49,89,80,73,83
10314,1,"C","M",96,52,80,58,35
10315,1,"C","F",97,82,31,41,50
10316,1,"C","M",82,37,71,75,63
10317,1,"C","F",67,86,71,85,96
10318,1,"C","F",74,37,63,82,64
10319,1,"C","M",48,71,80,47,67
10320,1,"C","F",41,35,74,42,50
10321,1,"C","F",84,72,79,71,88
10322,1,"C","F",42,44,85,71,35
10323,1,"C","M",82,72,25,38,55
10324,1,"C","F",34,32,49,56,77
10325,1,"C","F",62,86,58,26,49
10326,1,"C","F",56,59,71,31,100
10327,1,"C","F",NA,41,90,87,28
10328,1,"C","F",75,73,92,45,71
10329,1,"C","M",78,77,42,29,72
10330,1,"C","F",42,63,55,74,65
10331,1,"C","F",73,49,76,37,59
10332,1,"C","M",93,75,86,100,76
10333,1,"C","F",37,65,84,88,91
10334,1,"C","F",100,48,88,91,41
10335,1,"C","M",92,69,48,82,62
10336,1,"C","F",91,27,27,74,91
10337,1,"C","F",71,64,29,30,31
10338,1,"C","M",69,75,59,98,46
10339,1,"C","M",68,53,78,72,94
10340,1,"C","F",50,99,91,74,75
10401,1,"D","F",31,51,25,96,28
10402,1,"D","M",27,51,34,73,83
10403,1,"D","F",56,38,86,57,61
10404,1,"D","F",72,44,84,60,74
10405,1,"D","M",81,57,50,74,34
10406,1,"D","M",96,95,74,100,51
10407,1,"D","M",80,90,94,99,51
10408,1,"D","F",88,54,42,64,94
10409,1,"D","F",29,62,75,50,99
10410,1,"D","M",89,89,30,97,46
10411,1,"D","M",77,91,68,48,62
10412,1,"D","F",81,67,91,40,78
10413,1,"D","M",99,49,97,86,87
10414,1,"D","M",89,70,31,67,43
10415,1,"D","F",59,74,72,80,40
10416,1,"D","M",38,99,68,85,91
10417,1,"D","M",54,57,63,36,52
10418,1,"D","F",53,34,32,99,53
10419,1,"D","F",84,77,59,42,59
10420,1,"D","F",55,91,72,94,90
10421,1,"D","M",60,41,100,42,75
10422,1,"D","M",65,40,56,97,67
10423,1,"D","M",60,90,61,84,79
10424,1,"D","M",100,35,61,98,33
10425,1,"D","F",84,41,28,44,65
10426,1,"D","M",83,69,49,79,51
10427,1,"D","F",82,27,26,83,44
10428,1,"D","M",98,98,90,38,55
10429,1,"D","F",72,58,38,79,59
10430,1,"D","F",73,57,41,60,82
10431,1,"D","F",69,37,32,68,55
10432,1,"D","M",81,84,82,89,80
10433,1,"D","M",62,32,93,40,82
10434,1,"D","M",49,47,38,33,25
10435,1,"D","F",76,36,42,72,67
10436,1,"D","F",60,37,94,77,84
10437,1,"D","F",42,35,42,46,82
10438,1,"D","M",93,32,63,98,67
10439,1,"D","M",45,74,64,95,73
10440,1,"D","F",61,32,92,76,74
10501,1,"E","M",55,70,41,44,89
10502,1,"E","M",98,72,60,69,29
10503,1,"E","F",79,75,58,61,49
10504,1,"E","F",76,94,37,31,49
10505,1,"E","F",100,59,89,86,90
10506,1,"E","F",41,41,58,38,94
10507,1,"E","F",100,38,99,53,68
10508,1,"E","F",44,70,53,25,93
10509,1,"E","M",98,90,65,36,67
10510,1,"E","F",46,66,60,71,60
10511,1,"E","M",89,41,53,36,50
10512,1,"E","F",55,50,91,75,71
10513,1,"E","M",33,79,29,95,33
10514,1,"E","F",47,30,51,50,86
10515,1,"E","M",74,37,87,95,90
10516,1,"E","M",80,75,32,29,40
10517,1,"E","F",68,33,96,39,59
10518,1,"E","M",86,33,78,28,32
10519,1,"E","M",35,28,70,35,88
10520,1,"E","M",NA,72,48,33,86
10521,1,"E","M",83,59,59,50,87
10522,1,"E","M",31,27,66,98,35
10523,1,"E","M",35,49,53,53,51
10524,1,"E","M",61,91,83,26,30
10525,1,"E","F",100,51,37,58,60
10526,1,"E","F",93,82,50,76,73
10527,1,"E","F",29,41,54,76,33
10528,1,"E","F",37,88,80,29,82
10529,1,"E","F",96,90,79,46,61
10530,1,"E","M",27,97,94,72,91
10531,1,"E","F",55,82,27,83,91
10532,1,"E","M",31,36,65,32,40
10533,1,"E","M",96,94,60,52,30
10534,1,"E","F",91,76,63,100,94
10535,1,"E","F",98,99,46,76,75
10536,1,"E","M",61,62,57,70,81
10537,1,"E","M",59,47,53,73,70
10538,1,"E","F",67,77,59,100,94
10539,1,"E","F",64,62,91,37,99
10540,1,"E","F",99,36,35,56,94
20101,2,"A","M",57,68,98,88,40
20102,2,"A","F",94,33,32,44,90
20103,2,"A","M",75,73,34,37,85
20104,2,"A","M",73,85,35,39,65
20105,2,"A","F",64,26,86,64,72
20106,2,"A","F",26,65,52,63,87
20107,2,"A","M",57,54,83,72,53
20108,2,"A","M",83,34,49,81,63
20109,2,"A","M",50,26,36,38,99
20110,2,"A","F",57,44,47,94,38
20111,2,"A","M",43,97,28,89,68
20112,2,"A","M",46,58,98,73,30
20113,2,"A","M",28,79,96,57,63
20114,2,"A","F",81,40,42,87,81
20115,2,"A","F",89,87,64,37,100
20116,2,"A","F",56,70,94,51,45
20117,2,"A","F",72,76,87,38,74
20118,2,"A","M",40,45,79,84,39
20119,2,"A","F",49,96,44,84,63
20120,2,"A","F",31,59,90,75,52
20121,2,"A","M",60,54,91,82,48
20122,2,"A","M",84,87,56,53,47
20123,2,"A","M",36,51,97,84,51
20124,2,"A","M",43,48,71,43,83
20125,2,"A","F",77,52,62,75,83
20126,2,"A","M",71,38,79,38,54
20127,2,"A","F",86,83,100,87,76
20128,2,"A","F",44,78,67,51,56
20129,2,"A","M",72,31,81,59,35
20130,2,"A","M",46,89,35,97,52
20131,2,"A","F",84,76,52,49,78
20132,2,"A","F",64,67,49,32,58
20133,2,"A","M",45,76,32,100,73
20134,2,"A","M",69,65,55,71,77
20135,2,"A","F",35,99,53,53,47
20136,2,"A","M",38,51,67,26,72
20137,2,"A","F",63,27,70,59,78
20138,2,"A","F",32,35,32,81,26
20139,2,"A","F",86,86,56,92,97
20140,2,"A","M",74,74,58,59,26
20201,2,"B","M",42,72,87,70,96
20202,2,"B","F",72,38,51,100,95
20203,2,"B","M",93,61,41,46,49
20204,2,"B","F",25,84,38,99,100
20205,2,"B","M",81,40,38,46,49
20206,2,"B","M",48,78,33,69,32
20207,2,"B","M",82,76,96,84,74
20208,2,"B","F",67,30,84,44,58
20209,2,"B","F",98,56,44,86,38
20210,2,"B","F",32,42,40,42,52
20211,2,"B","F",50,66,58,95,82
20212,2,"B","F",54,25,56,96,63
20213,2,"B","M",88,64,37,73,56
20214,2,"B","M",40,86,77,65,63
20215,2,"B","M",41,67,42,82,51
20216,2,"B","F",50,68,28,29,86
20217,2,"B","M",33,61,78,32,100
20218,2,"B","M",85,64,34,82,95
20219,2,"B","F",57,82,69,94,47
20220,2,"B","M",80,79,41,83,68
20221,2,"B","F",58,40,89,70,73
20222,2,"B","M",44,45,51,53,70
20223,2,"B","F",82,60,33,65,51
20224,2,"B","F",45,62,41,44,54
20225,2,"B","M",50,77,34,38,98
20226,2,"B","M",94,62,96,82,73
20227,2,"B","F",89,96,57,77,34
20228,2,"B","M",99,33,70,68,93
20229,2,"B","F",97,29,71,54,71
20230,2,"B","F",100,40,98,29,71
20231,2,"B","F",57,29,100,78,46
20232,2,"B","M",80,61,97,36,98
20233,2,"B","M",55,28,25,95,99
20234,2,"B","F",26,55,56,95,80
20235,2,"B","M",39,40,75,25,73
20236,2,"B","M",61,58,69,57,37
20237,2,"B","M",73,47,80,52,97
20238,2,"B","M",82,98,67,53,75
20239,2,"B","F",77,71,83,85,46
20240,2,"B","M",56,83,76,80,92
20301,2,"C","F",93,81,47,99,73
20302,2,"C","M",33,98,41,68,72
20303,2,"C","F",63,82,28,70,62
20304,2,"C","M",57,89,40,25,47
20305,2,"C","F",41,95,61,76,26
20306,2,"C","M",55,56,26,57,39
20307,2,"C","M",95,97,28,58,91
20308,2,"C","F",99,80,30,46,34
20309,2,"C","M",93,81,35,92,40
20310,2,"C","M",27,75,65,93,60
20311,2,"C","M",57,94,92,66,67
20312,2,"C","M",75,67,72,42,31
20313,2,"C","M",100,98,78,61,40
20314,2,"C","M",91,82,67,97,31
20315,2,"C","M",37,76,86,73,78
20316,2,"C","M",32,28,78,25,95
20317,2,"C","M",82,56,66,92,42
20318,2,"C","F",33,62,84,39,84
20319,2,"C","M",64,55,64,80,52
20320,2,"C","M",100,66,58,47,25
20321,2,"C","M",36,56,26,84,53
20322,2,"C","F",65,71,49,70,68
20323,2,"C","M",88,65,76,92,72
20324,2,"C","F",32,77,65,62,77
20325,2,"C","M",30,64,65,95,94
20326,2,"C","F",30,32,85,82,57
20327,2,"C","M",38,97,53,95,73
20328,2,"C","M",95,53,64,28,100
20329,2,"C","M",68,88,90,78,76
20330,2,"C","F",45,53,47,65,31
20331,2,"C","M",67,28,81,33,81
20332,2,"C","M",62,44,36,81,61
20333,2,"C","M",79,93,75,41,67
20334,2,"C","F",97,71,29,75,70
20335,2,"C","M",48,67,42,53,36
20336,2,"C","F",52,85,25,92,48
20337,2,"C","F",72,81,90,50,65
20338,2,"C","F",81,95,57,94,29
20339,2,"C","F",44,72,30,79,92
20340,2,"C","M",36,71,89,49,57
20401,2,"D","M",68,61,34,56,92
20402,2,"D","F",69,85,32,62,100
20403,2,"D","M",90,83,52,73,87
20404,2,"D","M",83,68,39,34,80
20405,2,"D","M",100,85,76,59,63
20406,2,"D","M",69,65,31,49,98
20407,2,"D","F",63,85,47,62,88
20408,2,"D","M",85,48,68,94,93
20409,2,"D","M",74,62,47,51,82
20410,2,"D","F",100,27,98,36,61
20411,2,"D","M",86,80,28,71,56
20412,2,"D","F",78,86,99,97,47
20413,2,"D","M",27,62,41,38,53
20414,2,"D","M",40,51,42,57,66
20415,2,"D","M",36,66,40,77,39
20416,2,"D","F",59,38,42,83,29
20417,2,"D","M",94,29,100,80,40
20418,2,"D","F",27,82,100,42,93
20419,2,"D","F",85,50,80,29,76
20420,2,"D","F",40,42,48,46,66
20421,2,"D","M",77,74,93,39,81
20422,2,"D","M",26,94,52,45,93
20423,2,"D","M",38,76,39,65,25
20424,2,"D","F",57,85,75,75,62
20425,2,"D","F",69,60,68,60,93
20426,2,"D","M",46,35,78,81,96
20427,2,"D","F",27,52,86,82,31
20428,2,"D","M",63,70,85,48,94
20429,2,"D","F",100,33,66,96,54
20430,2,"D","M",41,99,30,67,68
20431,2,"D","M",75,85,85,29,93
20432,2,"D","F",74,27,100,89,40
20433,2,"D","F",92,49,98,86,70
20434,2,"D","M",94,38,28,54,69
20435,2,"D","F",59,99,80,32,40
20436,2,"D","M",48,73,44,25,94
20437,2,"D","F",70,66,93,25,56
20438,2,"D","F",67,52,54,28,97
20439,2,"D","F",27,25,87,100,41
20440,2,"D","F",95,60,90,99,62
20501,2,"E","M",38,58,85,40,99
20502,2,"E","F",50,94,41,64,100
20503,2,"E","M",65,86,51,87,52
20504,2,"E","M",92,50,69,100,87
20505,2,"E","M",94,58,36,97,52
20506,2,"E","F",99,84,48,81,60
20507,2,"E","M",80,76,81,70,27
20508,2,"E","F",66,88,37,98,71
20509,2,"E","M",46,85,98,61,96
20510,2,"E","F",67,56,68,87,54
20511,2,"E","M",79,90,27,93,68
20512,2,"E","F",97,64,85,93,35
20513,2,"E","M",69,50,82,83,42
20514,2,"E","M",48,68,31,74,65
20515,2,"E","F",63,87,25,87,25
20516,2,"E","F",34,52,100,97,56
20517,2,"E","F",32,46,62,68,51
20518,2,"E","F",61,86,95,51,99
20519,2,"E","F",45,30,74,82,77
20520,2,"E","M",69,96,82,93,86
20521,2,"E","M",47,56,27,94,32
20522,2,"E","M",48,71,54,89,60
20523,2,"E","M",47,59,54,78,29
20524,2,"E","F",86,91,57,46,47
20525,2,"E","M",59,57,90,64,41
20526,2,"E","F",95,40,32,55,39
20527,2,"E","F",63,80,57,65,63
20528,2,"E","F",58,86,66,32,100
20529,2,"E","F",54,86,85,66,80
20530,2,"E","F",78,63,84,52,52
20531,2,"E","F",87,45,76,80,89
20532,2,"E","M",73,33,76,71,35
20533,2,"E","M",32,62,97,29,75
20534,2,"E","M",96,88,73,29,71
20535,2,"E","F",41,80,95,38,59
20536,2,"E","F",29,33,95,40,51
20537,2,"E","M",95,100,96,95,60
20538,2,"E","M",79,55,32,78,31
20539,2,"E","M",74,60,99,68,80
20540,2,"E","F",58,88,35,92,41
30101,3,"A","M",29,38,29,62,47
30102,3,"A","F",99,33,98,88,35
30103,3,"A","M",38,32,40,54,60
30104,3,"A","M",79,93,55,30,25
30105,3,"A","M",48,80,57,58,99
30106,3,"A","F",70,67,51,95,31
30107,3,"A","M",60,62,95,95,75
30108,3,"A","F",32,70,57,36,51
30109,3,"A","M",82,99,33,68,35
30110,3,"A","M",74,99,97,94,28
30111,3,"A","F",42,33,81,74,61
30112,3,"A","M",43,84,94,57,91
30113,3,"A","F",85,72,32,57,64
30114,3,"A","F",86,82,93,38,94
30115,3,"A","F",54,79,83,87,91
30116,3,"A","M",77,78,73,48,42
30117,3,"A","M",60,48,77,97,99
30118,3,"A","M",94,94,86,30,73
30119,3,"A","M",86,74,62,26,30
30120,3,"A","F",32,31,90,55,49
30121,3,"A","M",59,58,60,95,86
30122,3,"A","M",26,32,44,46,45
30123,3,"A","M",100,80,100,34,88
30124,3,"A","F",33,68,98,98,29
30125,3,"A","F",44,77,56,98,44
30126,3,"A","F",83,40,96,32,71
30127,3,"A","M",86,70,39,51,36
30128,3,"A","M",37,96,52,52,64
30129,3,"A","F",43,29,26,45,42
30130,3,"A","M",51,75,93,97,35
30131,3,"A","M",95,42,28,91,70
30132,3,"A","M",53,86,29,99,28
30133,3,"A","F",65,45,91,30,93
30134,3,"A","M",38,58,33,68,83
30135,3,"A","M",31,27,56,70,38
30136,3,"A","M",68,67,41,29,98
30137,3,"A","F",50,35,88,68,40
30138,3,"A","M",84,38,37,28,32
30139,3,"A","F",56,61,44,92,84
30140,3,"A","F",54,33,78,73,30
30201,3,"B","M",91,48,99,100,40
30202,3,"B","M",72,54,86,69,80
30203,3,"B","M",39,86,75,38,70
30204,3,"B","F",58,91,26,67,37
30205,3,"B","M",64,51,36,45,92
30206,3,"B","M",90,52,79,46,91
30207,3,"B","F",93,59,35,96,34
30208,3,"B","F",74,81,92,63,34
30209,3,"B","M",51,74,38,94,32
30210,3,"B","F",41,60,64,98,59
30211,3,"B","F",66,47,81,59,84
30212,3,"B","M",47,51,88,54,47
30213,3,"B","M",62,50,47,86,56
30214,3,"B","M",32,40,84,43,98
30215,3,"B","F",79,49,82,42,52
30216,3,"B","M",27,84,51,47,86
30217,3,"B","M",25,79,94,56,62
30218,3,"B","M",82,97,75,40,94
30219,3,"B","M",66,31,66,83,28
30220,3,"B","M",65,72,33,52,75
30221,3,"B","M",62,95,45,94,71
30222,3,"B","F",30,81,71,57,59
30223,3,"B","F",71,46,75,63,71
30224,3,"B","F",88,96,73,80,37
30225,3,"B","F",44,39,62,70,35
30226,3,"B","M",70,67,56,57,95
30227,3,"B","M",50,87,69,83,36
30228,3,"B","F",85,48,84,75,27
30229,3,"B","F",86,71,58,39,28
30230,3,"B","M",26,77,42,89,47
30231,3,"B","F",49,50,60,70,99
30232,3,"B","M",63,56,82,58,75
30233,3,"B","F",64,26,72,83,54
30234,3,"B","F",91,35,85,54,60
30235,3,"B","F",91,47,73,25,30
30236,3,"B","F",54,37,25,52,66
30237,3,"B","M",45,41,38,68,73
30238,3,"B","M",47,73,100,86,52
30239,3,"B","F",36,61,27,98,95
30240,3,"B","F",63,62,68,41,89
30301,3,"C","M",93,68,70,62,40
30302,3,"C","M",80,62,100,46,36
30303,3,"C","F",32,44,91,74,74
30304,3,"C","M",50,40,83,95,57
30305,3,"C","M",52,55,62,94,59
30306,3,"C","M",25,57,96,87,99
30307,3,"C","F",74,59,77,97,63
30308,3,"C","F",26,75,32,41,90
30309,3,"C","M",40,44,37,61,49
30310,3,"C","F",29,84,69,91,41
30311,3,"C","F",88,96,87,80,91
30312,3,"C","M",79,45,74,58,63
30313,3,"C","F",93,99,78,47,91
30314,3,"C","M",65,89,83,52,84
30315,3,"C","F",36,34,72,83,25
30316,3,"C","M",52,69,85,42,52
30317,3,"C","M",64,66,26,76,28
30318,3,"C","F",71,57,62,80,71
30319,3,"C","F",81,71,64,82,85
30320,3,"C","M",25,97,71,29,40
30321,3,"C","M",76,33,97,75,67
30322,3,"C","M",85,30,71,25,75
30323,3,"C","M",53,36,29,87,82
30324,3,"C","M",27,89,75,32,25
30325,3,"C","F",87,39,91,59,99
30326,3,"C","F",93,92,89,41,80
30327,3,"C","F",82,100,77,25,25
30328,3,"C","M",90,64,34,91,88
30329,3,"C","M",30,79,49,67,25
30330,3,"C","M",66,66,37,30,49
30331,3,"C","M",62,54,26,99,56
30332,3,"C","F",69,71,89,37,45
30333,3,"C","F",48,71,41,57,29
30334,3,"C","F",45,85,56,62,70
30335,3,"C","M",85,42,28,55,67
30336,3,"C","M",28,35,62,82,47
30337,3,"C","M",55,91,80,77,74
30338,3,"C","M",56,57,31,57,35
30339,3,"C","F",51,99,100,97,92
30340,3,"C","M",91,73,78,95,71
30401,3,"D","F",59,26,60,71,83
30402,3,"D","F",34,41,59,74,75
30403,3,"D","M",89,56,86,59,86
30404,3,"D","M",89,88,49,35,100
30405,3,"D","M",29,64,98,60,38
30406,3,"D","M",46,38,69,36,96
30407,3,"D","F",97,99,38,44,76
30408,3,"D","F",47,31,85,88,35
30409,3,"D","F",28,62,99,41,88
30410,3,"D","M",56,76,94,28,77
30411,3,"D","F",63,83,81,77,36
30412,3,"D","M",58,46,80,87,50
30413,3,"D","M",71,36,40,52,53
30414,3,"D","M",37,76,33,100,62
30415,3,"D","M",98,86,92,27,63
30416,3,"D","M",90,77,90,29,87
30417,3,"D","M",87,53,56,46,39
30418,3,"D","F",90,70,100,86,66
30419,3,"D","M",66,73,34,84,99
30420,3,"D","M",75,49,70,31,52
30421,3,"D","M",52,92,78,25,36
30422,3,"D","F",61,77,85,31,41
30423,3,"D","F",98,75,52,98,69
30424,3,"D","F",65,78,50,92,53
30425,3,"D","M",58,75,71,32,53
30426,3,"D","F",100,72,82,87,57
30427,3,"D","F",73,87,44,79,73
30428,3,"D","M",79,65,28,97,80
30429,3,"D","M",85,62,51,76,31
30430,3,"D","F",73,43,67,54,95
30431,3,"D","M",52,69,42,61,54
30432,3,"D","F",48,91,78,47,100
30433,3,"D","F",39,92,54,38,76
30434,3,"D","F",46,31,50,69,76
30435,3,"D","M",99,51,65,65,63
30436,3,"D","M",43,29,94,42,62
30437,3,"D","F",38,71,90,77,52
30438,3,"D","M",84,50,31,77,74
30439,3,"D","M",53,40,35,72,32
30440,3,"D","M",66,30,42,74,52
30501,3,"E","M",57,47,39,81,30
30502,3,"E","M",47,37,73,89,87
30503,3,"E","M",89,55,41,76,63
30504,3,"E","M",96,56,78,79,41
30505,3,"E","M",82,59,37,86,87
30506,3,"E","F",64,81,94,56,74
30507,3,"E","M",69,75,48,76,71
30508,3,"E","F",50,66,48,34,74
30509,3,"E","F",27,74,75,69,73
30510,3,"E","M",85,93,55,53,35
30511,3,"E","F",53,36,51,34,27
30512,3,"E","M",47,75,60,60,73
30513,3,"E","M",48,65,81,38,65
30514,3,"E","F",47,53,62,77,45
30515,3,"E","F",39,72,92,95,95
30516,3,"E","M",80,86,58,77,64
30517,3,"E","F",85,64,80,68,48
30518,3,"E","F",70,89,28,39,46
30519,3,"E","M",70,41,51,28,50
30520,3,"E","F",73,83,62,93,70
30521,3,"E","M",83,26,37,29,77
30522,3,"E","F",100,56,63,73,55
30523,3,"E","F",41,99,86,59,33
30524,3,"E","M",44,58,65,67,88
30525,3,"E","M",59,51,51,86,75
30526,3,"E","F",78,51,96,47,25
30527,3,"E","M",31,29,32,55,83
30528,3,"E","F",89,35,94,39,72
30529,3,"E","M",39,45,57,82,43
30530,3,"E","F",80,41,50,98,62
30531,3,"E","F",70,66,76,73,97
30532,3,"E","M",34,99,80,81,75
30533,3,"E","M",36,52,56,58,35
30534,3,"E","F",62,36,31,47,97
30535,3,"E","F",88,37,52,65,77
30536,3,"E","M",96,95,79,38,78
30537,3,"E","F",66,79,48,97,43
30538,3,"E","M",56,95,71,29,36
30539,3,"E","M",51,67,39,91,55
30540,3,"E","M",76,29,80,91,66
